Loading Stics daily output file(s) — get_daily_results • SticsRFiles
…
      doy_list
      vector of cumulative DOYs (optional)

      dates_list
      list of dates (optional)

    Value

    A tibble or a list of

    Examples

path <- system.file(file.path("extdata","sti","V9.0"), package = "SticsRFiles")
get_daily_results(path,"banana")
#> # A tibble: 271 x 51
#>    Date                  ian    mo    jo   jul lai_n masec_n mafruit  HR_1  HR_2
#>    <dttm>              <int> <int> <int> <int> <dbl>   <dbl>   <dbl> <dbl> <dbl>
#>  1 1996-01-30 00:00:00  1996     1    30    30 0       0           0  39.0  40.3
#>  2 1996-01-31 00:00:00  1996     1    31    31 0       0           0  38.0  39.7
#>  3 1996-02-01 00:00:00  1996     2     1    32 0       0           0  37.4  39.0
#>  4 1996-02-02 00:00:00  1996     2     2    33 0.100   0.500       0  36.7  38.3
#>  5 1996-02-03 00:00:00  1996     2     3    34 0.100   0.500       0  36.1  37.6
#>  6 1996-02-04 00:00:00  1996     2     4    35 0.100   0.500       0  35.5  37.0
#>  7 1996-02-05 00:00:00  1996     2     5    36 0.100   0.500       0  34.8  36.3
#>  8 1996-02-06 00:00:00  1996     2     6    37 0.100   0.500       0  34.2  35.7
#>  9 1996-02-07 00:00:00  1996     2     7    38 0.100   0.500       0  33.6  35.0
#> 10 1996-02-08 00:00:00  1996     2     8    39 0.100   0.500       0  32.9  34.4
#> # ... with 261 more rows, and 41 more variables: HR_3 <dbl>, HR_4 <dbl>,
#> #   HR_5 <dbl>, resmes <dbl>, drain <dbl>, esol <dbl>, et <dbl>, zrac <dbl>,
#> #   tcult <dbl>, AZnit_1 <dbl>, AZnit_2 <dbl>, AZnit_3 <dbl>, AZnit_4 <dbl>,
#> #   AZnit_5 <dbl>, Qles <dbl>, QNplante <dbl>, azomes <dbl>, inn <dbl>,
#> #   chargefruit <dbl>, AZamm_1 <dbl>, AZamm_2 <dbl>, AZamm_3 <dbl>,
#> #   AZamm_4 <dbl>, AZamm_5 <dbl>, CNgrain <dbl>, concNO3les <dbl>, drat <dbl>,
#> #   fapar <dbl>, hauteur <dbl>, Hmax <dbl>, humidite <dbl>, LRACH_1 <dbl>,
#> #   LRACH_2 <dbl>, LRACH_3 <dbl>, LRACH_4 <dbl>, LRACH_5 <dbl>, mafrais <dbl>,
#> #   pdsfruitfrais <dbl>, Qdrain <dbl>, rnet <dbl>, cum_jul <int>
…
