Manipulating STICS XML files • SticsRFiles
…
The found parameters data.frame content is presented in the above
paged table.

Finding parameters using partial match on formalism and parameter
names

Parameters may be found combining search in formalisms and parameter
names:

get_param_info(formalism = "yield", param = "grain")

param_formalisms <- get_param_info(formalism = "yield", param = c("inflo", "lai"))

#> # A tibble: 26 × 5
#>    name       file           min   max formalism      
#>    <chr>      <chr>        <dbl> <dbl> <chr>          
#>  1 magrain0   file_ini.xml NA       NA none           
#>  2 afpf       file_plt.xml  0.01     1 yield formation
#>  3 allocfrmax file_plt.xml  0.05     1 yield formation
#>  4 bfpf       file_plt.xml  0       30 yield formation
#>  5 cfpf       file_plt.xml  0.1    100 yield formation
#>  6 cgrain     file_plt.xml  0.01     1 yield formation
#>  7 cgrainv0   file_plt.xml  0    15000 yield formation
#>  8 codetremp  file_plt.xml  1        2 yield formation
#>  9 dfpf       file_plt.xml  0.01     5 yield formation
#> 10 inngrain1  file_plt.xml  0.3      2 nitrogen       
#> # ℹ 16 more rows
…
