SticsRFiles • SticsRFiles
…
We can also read the parameters inside a particular XML file. This helps users of custom or old versions of JavaSTICS still get the parameters:

get_param_info(file_path = plant_file)
#> # A tibble: 257 × 5
#>    name       file                min    max formalism                          
#>    <chr>      <chr>             <dbl>  <dbl> <chr>                              
#>  1 abscission maisopti_plt.xml   0     100   leaves                             
#>  2 adens      maisopti_plt.xml  -2       0   cultivar parameters                
#>  3 adfol      maisopti_plt.xml -10      10   radiation interception             
#>  4 adil       maisopti_plt.xml   1       7   nitrogen                           
#>  5 adilmax    maisopti_plt.xml   3      10   nitrogen                           
#>  6 afpf       maisopti_plt.xml   0.01    1   yield formation                    
#>  7 afruitpot  maisopti_plt.xml   0.5    20   cultivar parameters                
#>  8 allocfrmax maisopti_plt.xml   0.05    0.3 yield formation                    
#>  9 alphaco2   maisopti_plt.xml   1       2   effect of atmospheric CO2 concentr…
#> 10 alphaphot  maisopti_plt.xml   0    1000   leaves                             
#> # … with 247 more rows
…
